25 14000
370
707
868
827
592
546
293
850
516
886
342
696
945
625
615
1074
853
792
577
631
512
703
630
992
296
551
701
431
1105
959
1067
633
601
878
1255
778
1449
635
1023
700
1130
461
760
694
1102
1294
506
1143
652
623
949
821
1075
707
768
862
575
387
1015
1056
1095
474
667
367
770
296
899
761
666
765
850
1153
555
922
210
752
504
852
1135
741
331
803
775
738
642
0
641
512
877
636
529
672
375
357
1424
1131
358
549
469
857
835
1026
216
609
791
754
1062
670
1076
383
620
840
1073
731
620
1217
774
555
396
921
560
1012
770
492
674
1219
853
940
1007
318
589
488
340
728
628
462
1030
570
1010
1084
1120
1039
945
356
530
781
665
817
915
296
651
204
933
811
730
746
839
611
837
632
788
692
482
630
311
128
803
975
324
724
567
1225
722
948
1260
765
598
505
885
648
1086
437
654
675
910
291
860
633
1331
928
588
901
787
885
852
853
859
53
1002
120
392
960
655
853
750
863
331
388
535
883
583
1231
231
489
381
608
922
1111
398
429
502
680
740
390
838
814
626
776
966
1252
937
737
967
648
1072
750
195
1100
284
336
608
614
870
873
801
427
516
935
457
1044
598
1189
701
674
500
494
263
996
585
783
176
581
477
1068
766
572
807
640
357
433
595
688
1002
1017
603
1533
787
841
415
1081
885
1282
1008
449
507
529
446
566
1042
604
760
1175
454
318
1243
541
675
931
472
704
651
791
823
966
329
473
962
611
771
811
843
1052
249
467
940
1025
1000
486
843
829
899
671
738
808
968
607
679
750
880
677
645
977
492
722
1426
965
732
1080
698
920
642
217
643
977
962
812
856
657
910
440
683
1050
756
1003
703
1577
1236
817
939
1047
722
578
766
762
784
1215
113
855
732
795
503
1138
183
449
600
738
133
854
533
193
787
1034
1180
835
488
873
1009
648
98
752
822
922
715
465
967
94
879
525
747
1023
885
632
564
303
369
860
770
691
1132
434
997
989
1152
955
1117
749
1099
1112
915
1312
981
1167
1120
1494
797
1476
1252
1212
952
1579
2078
1762
1866
1760
2088
1895
2398
1998
2229
2442
2368
2326
2490
3019
2598
2992
3135
2814
3004
3332
3503
4135
3324
3763
3756
3759
4199
4402
4908
4649
4330
4593
4992
5280
4786
5350
5319
5262
5363
5842
5684
5503
5399
5937
5665
6304
6047
6275
6414
6951
6418
6550
6608
6185
7163
6467
6844
6823
6950
6939
6988
7161
7646
7327
7264
7150
7406
7279
7651
6997
7579
7729
7472
7540
6984
7466
6913
6959
7149
7130
6727
7078
7162
6705
6692
6348
6766
6252
6406
6626
5777
6197
5675
6330
6160
6205
6411
5625
5864
5564
5362
5965
5699
5777
5250
5396
4942
4636
5220
5281
5084
4329
4294
4191
4177
3845
3781
3972
3440
3630
3941
3509
3062
2864
3089
2768
2679
2770
2703
2741
2763
2676
2076
2099
1900
2055
1969
1815
1191
1429
1672
1526
1319
1545
1237
741
1556
1364
1033
610
666
849
365
744
563
1247
849
1159
1089
245
1132
478
776
571
689
640
453
362
1307
1024
1184
231
581
968
780
1108
590
783
1134
918
340
569
373
486
175
744
306
855
402
738
678
1017
756
748
655
467
941
714
162
626
685
903
1210
385
937
686
714
527
605
855
487
853
371
604
654
608
871
303
905
457
685
1031
737
855
605
779
353
734
829
736
370
1038
1035
409
587
591
466
805
897
831
676
511
774
675
1312
582
1117
793
786
625
238
693
720
684
339
737
1214
790
470
273
334
924
1092
927
101
964
444
475
715
1343
881
695
619
987
646
362
762
479
924
869
571
599
174
780
397
812
985
909
371
720
921
411
842
401
667
1214
583
681
291
422
980
727
615
482
940
592
656
254
1027
1239
692
547
788
483
889
594
1040
685
1280
1226
374
476
1162
423
767
653
1073
618
822
597
770
911
774
845
766
1248
721
789
834
718
1184
195
604
468
927
501
547
888
879
926
846
484
244
498
1016
567
715
374
1100
933
865
855
942
958
361
904
660
686
387
1176
548
1038
939
977
771
784
1088
898
692
704
338
605
756
795
1023
671
462
453
640
351
801
864
1452
1010
450
948
547
526
636
1139
629
752
54
350
1003
684
634
423
896
995
697
1458
969
907
508
823
747
972
426
844
940
1073
720
1157
633
643
731
787
535
1108
967
762
697
673
706
792
600
1176
477
703
1447
972
785
1166
514
538
1121
354
1001
837
685
590
453
411
712
57
627
524
890
201
714
692
952
1014
515
565
582
856
599
805
929
805
654
786
570
828
432
647
519
791
1324
902
672
434
953
1126
794
375
807
480
643
796
1163
591
943
575
544
420
961
364
421
992
386
955
859
705
466
318
933
1119
844
1117
881
468
895
451
468
761
797
971
1115
819
1296
614
234
829
1005
850
1025
489
433
598
1127
429
835
520
801
593
1082
483
1155
928
581
527
444
847
686
575
801
730
829
1029
460
674
638
1054
1209
767
1045
694
882
344
1034
408
646
945
675
765
825
1027
236
495
397
332
494
553
280
546
332
557
495
285
594
455
462
248
215
400
290
262
413
111
583
428
418
418
309
151
310
561
361
427
348
411
396
500
430
248
349
244
483
455
415
326
583
435
413
394
330
370
339
520
620
301
341
492
552
419
379
375
314
378
671
267
628
252
654
472
319
536
463
408
481
458
621
199
311
462
708
511
315
738
316
298
231
472
516
202
434
556
291
365
376
304
479
469
358
460
201
295
139
381
513
311
394
361
236
395
378
224
235
333
348
222
677
484
480
350
489
334
364
375
357
488
519
364
253
402
0
365
130
187
702
352
426
354
332
436
533
394
432
143
410
571
406
253
765
392
407
288
422
332
429
476
59
420
335
226
217
275
525
338
285
460
334
472
383
380
352
404
268
125
597
363
339
272
662
656
379
493
398
349
627
414
252
244
195
632
404
470
494
446
655
298
487
237
469
148
505
208
571
481
520
463
401
246
507
393
394
403
396
447
531
396
258
439
535
355
540
262
533
436
516
181
551
472
621
421
398
388
479
326
190
389
483
447
320
418
535
403
437
321
581
340
563
483
590
205
493
552
498
437
238
375
387
333
614
248
442
338
525
429
497
710
613
422
502
197
443
453
343
108
435
645
550
308
358
336
332
594
277
583
743
328
399
428
276
215
433
450
566
379
228
578
370
568
281
234
468
248
464
374
358
468
248
252
390
317
383
295
295
529
158
271
372
503
329
360
142
562
288
333
410
502
300
201
311
433
674
276
252
246
572
369
414
323
359
507
465
301
457
393
279
527
397
225
399
579
597
529
424
429
502
342
390
502
234
572
213
322
472
382
477
300
363
502
182
245
545
492
240
290
511
394
615
593
271
224
454
430
358
392
479
389
415
651
352
307
328
408
356
285
539
270
423
414
350
463
497
392
253
218
467
557
102
572
562
365
426
251
442
383
549
360
421
443
611
618
360
744
944
644
893
918
899
1004
1061
1331
1223
1305
1283
1357
1546
1394
1315
1530
1883
1814
1813
1835
2090
2193
2454
2360
2464
2688
2692
2693
3098
3102
3068
3264
3337
3585
3306
3583
4011
3858
4195
3983
4336
4434
4468
4707
4562
4822
4766
4731
5218
5249
5464
5312
5813
5578
5832
5815
5803
5786
5742
6136
6142
6350
6147
6493
6298
6668
6329
6515
6548
6691
6806
6891
6844
6736
6809
6865
6919
6962
6858
6770
6860
6932
6721
6873
6661
6980
6749
6748
6809
6744
6672
6779
6654
6570
6329
6486
6525
6337
6458
6050
6326
5967
6155
5910
5892
5779
5637
5343
5582
5479
5453
5034
5126
5392
4868
4833
4580
4552
4482
4501
4330
4206
3922
3947
3847
3698
3743
3648
3166
3291
2931
2861
2911
2786
2896
2675
2741
2219
2442
2147
1996
1990
1911
1826
1732
1616
1571
1478
1280
1524
1143
1407
1006
1207
751
1077
1026
1038
853
828
707
775
616
600
723
502
415
339
418
190
360
271
341
569
375
279
440
373
308
293
361
262
176
460
388
423
421
8
340
312
448
367
436
351
650
397
464
469
349
597
347
633
577
366
437
340
17
442
350
317
457
514
589
363
667
282
305
360
500
429
440
397
576
432
464
364
606
550
665
519
169
408
296
315
346
294
336
562
535
503
442
231
612
303
818
523
469
472
440
548
536
515
434
607
511
381
412
327
647
233
382
223
527
353
521
420
515
372
336
436
707
335
423
523
593
179
366
386
290
529
80
500
431
283
265
250
370
290
313
371
385
409
350
284
567
317
203
435
374
472
358
429
431
398
236
280
357
414
325
217
308
192
314
238
409
269
537
277
313
379
322
492
231
478
313
432
305
457
429
331
335
337
347
393
518
276
462
324
478
585
325
356
292
495
474
421
470
412
556
553
279
332
486
253
390
406
189
266
340
172
224
347
404
16
739
439
366
415
294
221
272
647
503
386
473
261
524
410
349
377
456
528
434
484
550
407
271
333
354
524
669
608
500
334
632
443
164
298
502
483
318
399
401
131
357
507
385
339
453
371
390
297
564
343
633
461
331
425
531
466
441
429
549
292
302
299
72
530
364
345
295
224
172
342
295
597
359
509
365
347
205
371
393
381
244
147
585
374
281
386
372
392
292
480
331
492
312
243
405
752
535
500
337
265
362
150
424
516
377
350
345
481
342
320
552
519
240
553
473
367
270
406
225
477
589
520
450
530
463
469
352
463
132
475
244
250
572
376
76
229
373
530
399
286
319
607
393
565
425
377
565
448
594
455
307
555
400
422
549
172
376
611
452
428
496
604
194
551
470
532
580
380
427
275
575
531
301
677
241
261
473
501
541
286
369
285
182
346
241
440
384
304
240
336
396
474
446
502
451
410
440
551
340
386
477
379
282
520
612
511
296
224
672
482
448
559
515
292
699
445
236
495
397
332
494
553
280
546
332
557
495
285
594
455
462
248
215
400
290
262
413
111
583
428
418
418
309
151
310
561
361
427
348
411
396
500
430
248
349
244
483
455
415
326
583
435
413
394
330
370
339
520
620
301
341
492
552
419
379
375
314
378
671
267
628
252
654
472
319
536
463
408
481
458
621
199
311
462
708
511
315
738
316
298
231
472
516
202
434
556
291
365
376
304
479
469
358
460
201
295
139
381
513
311
394
361
236
395
378
224
235
333
348
222
677
484
480
350
489
334
364
375
357
488
519
364
253
402
0
365
130
187
702
352
426
354
332
436
533
394
432
143
410
571
406
253
765
392
407
288
422
332
429
476
59
420
335
226
217
275
525
338
285
460
334
472
383
380
352
404
268
125
597
363
339
272
662
656
379
493
398
349
627
414
252
244
195
632
404
470
494
446
655
298
487
237
469
148
505
208
571
481
520
463
401
246
507
393
394
403
396
447
531
396
258
439
535
355
540
262
533
436
516
181
551
472
621
421
398
388
479
326
190
389
483
447
320
418
535
403
437
321
581
340
563
483
590
205
493
552
498
437
238
375
387
333
614
248
442
338
525
429
497
710
613
422
502
197
443
453
343
108
435
645
550
308
358
336
332
594
277
583
743
328
399
428
276
215
433
450
566
379
228
578
370
568
281
234
468
248
464
374
358
468
248
252
390
317
383
295
295
529
158
271
372
503
329
360
142
562
288
333
410
502
300
201
311
433
674
276
252
246
572
369
414
323
359
507
465
301
457
393
279
527
397
225
399
579
597
529
424
429
502
342
390
502
234
572
213
322
472
382
477
300
363
502
182
245
545
492
240
290
511
394
615
593
271
224
454
430
358
392
479
389
415
651
352
307
328
408
356
285
539
270
423
414
350
463
497
392
253
218
467
557
102
572
562
365
426
251
442
383
549
360
421
443
611
618
360
744
944
644
893
918
899
1004
1061
1331
1223
1305
1283
1357
1546
1394
1315
1530
1883
1814
1813
1835
2090
2193
2454
2360
2464
2688
2692
2693
3098
3102
3068
3264
3337
3585
3306
3583
4011
3858
4195
3983
4336
4434
4468
4707
4562
4822
4766
4731
5218
5249
5464
5312
5813
5578
5832
5815
5803
5786
5742
6136
6142
6350
6147
6493
6298
6668
6329
6515
6548
6691
6806
6891
6844
6736
6809
6865
6919
6962
6858
6770
6860
6932
6721
6873
6661
6980
6749
6748
6809
6744
6672
6779
6654
6570
6329
6486
6525
6337
6458
6050
6326
5967
6155
5910
5892
5779
5637
5343
5582
5479
5453
5034
5126
5392
4868
4833
4580
4552
4482
4501
4330
4206
3922
3947
3847
3698
3743
3648
3166
3291
2931
2861
2911
2786
2896
2675
2741
2219
2442
2147
1996
1990
1911
1826
1732
1616
1571
1478
1280
1524
1143
1407
1006
1207
751
1077
1026
1038
853
828
707
775
616
600
723
502
415
339
418
190
360
271
341
569
375
279
440
373
308
293
361
262
176
460
388
423
421
8
340
312
448
367
436
351
650
397
464
469
349
597
347
633
577
366
437
340
17
442
350
317
457
514
589
363
667
282
305
360
500
429
440
397
576
432
464
364
606
550
665
519
169
408
296
315
346
294
336
562
535
503
442
231
612
303
818
523
469
472
440
548
536
515
434
607
511
381
412
327
647
233
382
223
527
353
521
420
515
372
336
436
707
335
423
523
593
179
366
386
290
529
80
500
431
283
265
250
370
290
313
371
385
409
350
284
567
317
203
435
374
472
358
429
431
398
236
280
357
414
325
217
308
192
314
238
409
269
537
277
313
379
322
492
231
478
313
432
305
457
429
331
335
337
347
393
518
276
462
324
478
585
325
356
292
495
474
421
470
412
556
553
279
332
486
253
390
406
189
266
340
172
224
347
404
16
739
439
366
415
294
221
272
647
503
386
473
261
524
410
349
377
456
528
434
484
550
407
271
333
354
524
669
608
500
334
632
443
164
298
502
483
318
399
401
131
357
507
385
339
453
371
390
297
564
343
633
461
331
425
531
466
441
429
549
292
302
299
72
530
364
345
295
224
172
342
295
597
359
509
365
347
205
371
393
381
244
147
585
374
281
386
372
392
292
480
331
492
312
243
405
752
535
500
337
265
362
150
424
516
377
350
345
481
342
320
552
519
240
553
473
367
270
406
225
477
589
520
450
530
463
469
352
463
132
475
244
250
572
376
76
229
373
530
399
286
319
607
393
565
425
377
565
448
594
455
307
555
400
422
549
172
376
611
452
428
496
604
194
551
470
532
580
380
427
275
575
531
301
677
241
261
473
501
541
286
369
285
182
346
241
440
384
304
240
336
396
474
446
502
451
410
440
551
340
386
477
379
282
520
612
511
296
224
672
482
448
559
515
292
699
445
236
495
397
332
494
553
280
546
332
557
495
285
594
455
462
248
215
400
290
262
413
111
583
428
418
418
309
151
310
561
361
427
348
411
396
500
430
248
349
244
483
455
415
326
583
435
413
394
330
370
339
520
620
301
341
492
552
419
379
375
314
378
671
267
628
252
654
472
319
536
463
408
481
458
621
199
311
462
708
511
315
738
316
298
231
472
516
202
434
556
291
365
376
304
479
469
358
460
201
295
139
381
513
311
394
361
236
395
378
224
235
333
348
222
677
484
480
350
489
334
364
375
357
488
519
364
253
402
0
365
130
187
702
352
426
354
332
436
533
394
432
143
410
571
406
253
765
392
407
288
422
332
429
476
59
420
335
226
217
275
525
338
285
460
334
472
383
380
352
404
268
125
597
363
339
272
662
656
379
493
398
349
627
414
252
244
195
632
404
470
494
446
655
298
487
237
469
148
505
208
571
481
520
463
401
246
507
393
394
403
396
447
531
396
258
439
535
355
540
262
533
436
516
181
551
472
621
421
398
388
479
326
190
389
483
447
320
418
535
403
437
321
581
340
563
483
590
205
493
552
498
437
238
375
387
333
614
248
442
338
525
429
497
710
613
422
502
197
443
453
343
108
435
645
550
308
358
336
332
594
277
583
743
328
399
428
276
215
433
450
566
379
228
578
370
568
281
234
468
248
464
374
358
468
248
252
390
317
383
295
295
529
158
271
372
503
329
360
142
562
288
333
410
502
300
201
311
433
674
276
252
246
572
369
414
323
359
507
465
301
457
393
279
527
397
225
399
579
597
529
424
429
502
342
390
502
234
572
213
322
472
382
477
300
363
502
182
245
545
492
240
290
511
394
615
593
271
224
454
430
358
392
479
389
415
651
352
307
328
408
356
285
539
270
423
414
350
463
497
392
253
218
467
555
99
566
552
349
402
218
397
325
474
267
306
304
445
422
131
479
640
299
503
479
409
459
459
668
497
512
420
422
536
309
155
298
582
448
388
356
564
627
856
738
825
1041
1045
1054
1474
1502
1499
1733
1852
2152
1930
2271
2768
2688
3102
2970
3407
3591
3712
4039
3982
4331
4362
4414
4984
5096
5389
5311
5882
5712
6026
6062
6098
6122
6112
6533
6558
6778
6578
6920
6712
7060
6691
6838
6824
6910
6962
6974
6847
6651
6628
6580
6524
6450
6223
6006
5962
6169
6086
6361
6266
6695
6568
6663
6812
6827
6827
6999
6930
6892
6691
6878
6938
6763
6889
6478
6743
6364
6525
6246
6187
6027
5831
5477
5651
5479
5378
4881
4892
5074
4465
4341
4000
3884
3725
3658
3400
3193
2829
2777
2604
2385
2367
2214
1680
1761
1361
1261
1287
1146
1248
1028
1103
597
844
582
471
512
486
461
431
384
411
392
270
588
280
613
279
544
149
532
536
599
462
482
404
510
387
404
557
363
300
246
343
132
315
238
317
553
364
273
437
371
307
293
361
262
176
460
388
423
421
8
340
312
448
367
436
351
650
397
464
469
349
597
347
633
577
366
437
340
17
442
350
317
457
514
589
363
667
282
305
360
500
429
440
397
576
432
464
364
606
550
665
519
169
408
296
315
346
294
336
562
535
503
442
231
612
303
818
523
469
472
440
548
536
515
434
607
511
381
412
327
647
233
382
223
527
353
521
420
515
372
336
436
707
335
423
523
593
179
366
386
290
529
80
500
431
283
265
250
370
290
313
371
385
409
350
284
567
317
203
435
374
472
358
429
431
398
236
280
357
414
325
217
308
192
314
238
409
269
537
277
313
379
322
492
231
478
313
432
305
457
429
331
335
337
347
393
518
276
462
324
478
585
325
356
292
495
474
421
470
412
556
553
279
332
486
253
390
406
189
266
340
172
224
347
404
16
739
439
366
415
294
221
272
647
503
386
473
261
524
410
349
377
456
528
434
484
550
407
271
333
354
524
669
608
500
334
632
443
164
298
502
483
318
399
401
131
357
507
385
339
453
371
390
297
564
343
633
461
331
425
531
466
441
429
549
292
302
299
72
530
364
345
295
224
172
342
295
597
359
509
365
347
205
371
393
381
244
147
585
374
281
386
372
392
292
480
331
492
312
243
405
752
535
500
337
265
362
150
424
516
377
350
345
481
342
320
552
519
240
553
473
367
270
406
225
477
589
520
450
530
463
469
352
463
132
475
244
250
572
376
76
229
373
530
399
286
319
607
393
565
425
377
565
448
594
455
307
555
400
422
549
172
376
611
452
428
496
604
194
551
470
532
580
380
427
275
575
531
301
677
241
261
473
501
541
286
369
285
182
346
241
440
384
304
240
336
396
474
446
502
451
410
440
551
340
386
477
379
282
520
612
511
296
224
672
482
448
559
515
292
699
445
236
495
397
332
494
553
280
546
332
557
495
285
594
455
462
248
215
400
290
262
413
111
583
428
418
418
309
151
310
561
361
427
348
411
396
500
430
248
349
244
483
455
415
326
583
435
413
394
330
370
339
520
620
301
341
492
552
419
379
375
314
378
671
267
628
252
654
472
319
536
463
408
481
458
621
199
311
462
708
511
315
738
316
298
231
472
516
202
434
556
291
365
376
304
479
469
358
460
201
295
139
381
513
311
394
361
236
395
378
224
235
333
348
222
677
484
480
350
489
334
364
375
357
488
519
364
253
402
0
365
130
187
702
352
426
354
332
436
533
394
432
143
410
571
406
253
765
392
407
288
422
332
429
476
59
420
335
226
217
275
525
338
285
460
334
472
383
380
352
404
268
125
597
363
339
272
662
656
379
493
398
349
627
414
252
244
195
632
404
470
494
446
655
298
487
237
469
148
505
208
571
481
520
463
401
246
507
393
394
403
396
447
531
396
258
439
535
355
540
262
533
436
516
181
551
472
621
421
398
388
479
326
190
389
483
447
320
418
535
403
437
321
581
340
563
483
590
205
493
552
498
437
238
375
387
333
614
248
442
338
525
429
497
710
613
422
502
197
443
453
343
108
435
645
550
308
358
336
332
594
277
583
743
328
399
428
276
215
433
450
566
379
228
578
370
568
281
234
468
248
464
374
358
468
248
252
390
317
383
295
295
529
158
271
372
503
329
360
142
562
288
333
410
502
300
201
311
433
674
276
252
246
572
369
414
323
359
507
465
301
457
393
279
527
397
225
399
579
597
529
424
429
502
342
390
502
234
572
213
322
472
382
477
300
363
502
182
245
545
492
240
290
511
394
615
593
271
224
454
430
358
392
479
389
415
651
352
307
328
408
356
285
539
270
423
414
350
463
497
392
253
218
467
555
99
566
552
349
402
218
397
325
474
267
306
304
445
422
131
479
640
299
503
479
409
459
459
668
497
512
420
422
536
310
160
311
608
494
460
460
707
817
1098
1039
1192
1479
1558
1646
2149
2262
2345
2666
2871
3255
3115
3534
4104
4092
4568
4490
4972
5193
5340
5684
5633
5976
5989
6010
6538
6594
6819
6660
7136
6859
7054
6960
6854
6724
6552
6799
6643
6673
6278
6417
6003
6141
5559
5493
5267
5142
4985
4794
4469
4082
3877
3658
3442
3220
2859
2523
2375
2685
2721
3131
3183
3773
3817
4094
4434
4647
4851
5231
5372
5548
5560
5959
6229
6261
6588
6374
6827
6631
6964
6849
6942
6925
6859
6624
6905
6827
6808
6380
6445
6671
6092
5986
5651
5529
5354
5260
4966
4713
4294
4181
3940
3648
3552
3317
2699
2693
2208
2021
1962
1739
1761
1466
1470
899
1087
771
614
616
557
506
458
397
416
393
270
588
280
613
279
544
149
532
536
599
462
482
404
510
387
404
557
363
300
246
343
132
315
238
317
553
364
273
437
371
307
293
361
262
176
460
388
423
421
8
340
312
448
367
436
351
650
397
464
469
349
597
347
633
577
366
437
340
17
442
350
317
457
514
589
363
667
282
305
360
500
429
440
397
576
432
464
364
606
550
665
519
169
408
296
315
346
294
336
562
535
503
442
231
612
303
818
523
469
472
440
548
536
515
434
607
511
381
412
327
647
233
382
223
527
353
521
420
515
372
336
436
707
335
423
523
593
179
366
386
290
529
80
500
431
283
265
250
370
290
313
371
385
409
350
284
567
317
203
435
374
472
358
429
431
398
236
280
357
414
325
217
308
192
314
238
409
269
537
277
313
379
322
492
231
478
313
432
305
457
429
331
335
337
347
393
518
276
462
324
478
585
325
356
292
495
474
421
470
412
556
553
279
332
486
253
390
406
189
266
340
172
224
347
404
16
739
439
366
415
294
221
272
647
503
386
473
261
524
410
349
377
456
528
434
484
550
407
271
333
354
524
669
608
500
334
632
443
164
298
502
483
318
399
401
131
357
507
385
339
453
371
390
297
564
343
633
461
331
425
531
466
441
429
549
292
302
299
72
530
364
345
295
224
172
342
295
597
359
509
365
347
205
371
393
381
244
147
585
374
281
386
372
392
292
480
331
492
312
243
405
752
535
500
337
265
362
150
424
516
377
350
345
481
342
320
552
519
240
553
473
367
270
406
225
477
589
520
450
530
463
469
352
463
132
475
244
250
572
376
76
229
373
530
399
286
319
607
393
565
425
377
565
448
594
455
307
555
400
422
549
172
376
611
452
428
496
604
194
551
470
532
580
380
427
275
575
531
301
677
241
261
473
501
541
286
369
285
182
346
241
440
384
304
240
336
396
474
446
502
451
410
440
551
340
386
477
379
282
520
612
511
296
224
672
482
448
559
515
292
699
445
236
495
397
332
494
553
280
546
332
557
495
285
594
455
462
248
215
400
290
262
413
111
583
428
418
418
309
151
310
561
361
427
348
411
396
500
430
248
349
244
483
455
415
326
583
435
413
394
330
370
339
520
620
301
341
492
552
419
379
375
314
378
671
267
628
252
654
472
319
536
463
408
481
458
621
199
311
462
708
511
315
738
316
298
231
472
516
202
434
556
291
365
376
304
479
469
358
460
201
295
139
381
513
311
394
361
236
395
378
224
235
333
348
222
677
484
480
350
489
334
364
375
357
488
519
364
253
402
0
365
130
187
702
352
426
354
332
436
533
394
432
143
410
571
406
253
765
392
407
288
422
332
429
476
59
420
335
226
217
275
525
338
285
460
334
472
383
380
352
404
268
125
597
363
339
272
662
656
379
493
398
349
627
414
252
244
195
632
404
470
494
446
655
298
487
237
469
148
505
208
571
481
520
463
401
246
507
393
394
403
396
447
531
396
258
439
535
355
540
262
533
436
516
181
551
472
621
421
398
388
479
326
190
389
483
447
320
418
535
403
437
321
581
340
563
483
590
205
493
552
498
437
238
375
387
333
614
248
442
338
525
429
497
710
613
422
502
197
443
453
343
108
435
645
550
308
358
336
332
594
277
583
743
328
399
428
276
215
433
450
566
379
228
578
370
568
281
234
468
248
464
374
358
468
248
252
390
317
383
295
295
529
158
271
372
503
329
360
142
562
288
333
410
502
300
201
311
433
674
276
252
246
572
369
414
323
359
507
465
301
457
393
279
527
397
225
399
579
597
529
424
429
502
342
390
502
234
572
213
322
472
382
477
300
363
502
182
245
545
492
240
290
511
394
615
593
271
224
454
430
358
392
479
389
415
651
352
307
328
408
356
285
539
270
423
414
350
463
497
392
253
218
467
555
99
566
552
349
402
218
397
325
474
267
306
304
445
422
131
479
640
299
504
488
432
507
547
809
708
811
824
948
1202
1129
1144
1466
1937
1999
2138
2307
2717
2980
3404
3475
3744
4131
4295
4450
5001
5143
5237
5548
5723
6058
5850
6182
6645
6509
6843
6608
6917
6950
6896
7027
6753
6863
6636
6411
6687
6490
6459
6046
6270
5744
5697
5367
5034
4688
4311
4368
4036
3907
3370
3386
2868
2924
2281
2175
1931
1811
1681
1540
1286
991
899
810
743
685
501
353
402
515
363
596
484
926
839
1003
1251
1392
1547
1900
2036
2229
2281
2742
3095
3230
3681
3608
4221
4200
4724
4812
5122
5331
5502
5509
6039
6213
6448
6275
6595
7071
6738
6873
6771
6872
6910
7017
6910
6831
6570
6598
6482
6296
6287
6121
5552
5575
5099
4902
4814
4542
4498
4119
4022
3335
3393
2934
2623
2463
2236
2011
1787
1551
1400
1213
936
1115
684
912
491
685
237
580
559
608
464
482
404
510
387
404
557
363
300
246
343
132
315
238
317
553
364
273
437
371
307
293
361
262
176
460
388
423
421
8
340
312
448
367
436
351
650
397
464
469
349
597
347
633
577
366
437
340
17
442
350
317
457
514
589
363
667
282
305
360
500
429
440
397
576
432
464
364
606
550
665
519
169
408
296
315
346
294
336
562
535
503
442
231
612
303
818
523
469
472
440
548
536
515
434
607
511
381
412
327
647
233
382
223
527
353
521
420
515
372
336
436
707
335
423
523
593
179
366
386
290
529
80
500
431
283
265
250
370
290
313
371
385
409
350
284
567
317
203
435
374
472
358
429
431
398
236
280
357
414
325
217
308
192
314
238
409
269
537
277
313
379
322
492
231
478
313
432
305
457
429
331
335
337
347
393
518
276
462
324
478
585
325
356
292
495
474
421
470
412
556
553
279
332
486
253
390
406
189
266
340
172
224
347
404
16
739
439
366
415
294
221
272
647
503
386
473
261
524
410
349
377
456
528
434
484
550
407
271
333
354
524
669
608
500
334
632
443
164
298
502
483
318
399
401
131
357
507
385
339
453
371
390
297
564
343
633
461
331
425
531
466
441
429
549
292
302
299
72
530
364
345
295
224
172
342
295
597
359
509
365
347
205
371
393
381
244
147
585
374
281
386
372
392
292
480
331
492
312
243
405
752
535
500
337
265
362
150
424
516
377
350
345
481
342
320
552
519
240
553
473
367
270
406
225
477
589
520
450
530
463
469
352
463
132
475
244
250
572
376
76
229
373
530
399
286
319
607
393
565
425
377
565
448
594
455
307
555
400
422
549
172
376
611
452
428
496
604
194
551
470
532
580
380
427
275
575
531
301
677
241
261
473
501
541
286
369
285
182
346
241
440
384
304
240
336
396
474
446
502
451
410
440
551
340
386
477
379
282
520
612
511
296
224
672
482
448
559
515
292
699
445
236
495
397
332
494
553
280
546
332
557
495
285
594
455
462
248
215
400
290
262
413
111
583
428
418
418
309
151
310
561
361
427
348
411
396
500
430
248
349
244
483
455
415
326
583
435
413
394
330
370
339
520
620
301
341
492
552
419
379
375
314
378
671
267
628
252
654
472
319
536
463
408
481
458
621
199
311
462
708
511
315
738
316
298
231
472
516
202
434
556
291
365
376
304
479
469
358
460
201
295
139
381
513
311
394
361
236
395
378
224
235
333
348
222
677
484
480
350
489
334
364
375
357
488
519
364
253
402
0
365
130
187
702
352
426
354
332
436
533
394
432
143
410
571
406
253
765
392
407
288
422
332
429
476
59
420
335
226
217
275
525
338
285
460
334
472
383
380
352
404
268
125
597
363
339
272
662
656
379
493
398
349
627
414
252
244
195
632
404
470
494
446
655
298
487
237
469
148
505
208
571
481
520
463
401
246
507
393
394
403
396
447
531
396
258
439
535
355
540
262
533
436
516
181
551
472
621
421
398
388
479
326
190
389
483
447
320
418
535
403
437
321
581
340
563
483
590
205
493
552
498
437
238
375
387
333
614
248
442
338
525
429
497
710
613
422
502
197
443
453
343
108
435
645
550
308
358
336
332
594
277
583
743
328
399
428
276
215
433
450
566
379
228
578
370
568
281
234
468
248
464
374
358
468
248
252
390
317
383
295
295
529
158
271
372
503
329
360
142
562
288
333
410
502
300
201
311
433
674
276
252
246
572
369
414
323
359
507
465
301
457
393
279
527
397
225
399
579
597
529
424
429
502
342
390
502
234
572
213
322
472
382
477
300
363
502
182
245
545
492
240
290
511
394
615
593
271
224
454
430
358
392
479
389
415
651
352
307
328
408
356
285
539
270
423
414
350
463
497
392
253
218
467
555
99
566
552
349
402
219
401
339
508
333
418
478
698
770
594
1073
1383
1208
1594
1769
1910
2184
2421
2875
2957
3232
3405
3673
4054
4089
4191
4581
5098
5183
5323
5471
5837
6034
6370
6333
6473
6712
6709
6681
7033
6962
6830
6905
6834
6915
6447
6514
6712
6309
6378
5881
5932
5715
5420
5319
4825
4729
4311
3911
4031
3695
3545
3033
3180
2600
2519
2179
1858
1547
1227
1362
1128
1117
715
883
532
765
310
399
353
432
496
541
461
325
372
407
444
473
359
265
353
428
222
384
186
522
313
337
426
394
362
520
459
454
310
583
758
727
1026
817
1313
1193
1639
1672
1947
2144
2324
2365
2950
3200
3534
3480
3938
4572
4414
4740
4844
5165
5434
5782
5926
6103
6105
6398
6548
6629
6884
6977
6662
6932
6692
6721
6846
6773
6912
6699
6750
6192
6359
5988
5743
5627
5421
5195
4948
4666
4448
4173
3788
3839
3265
3333
2740
2751
2111
2257
2037
1889
1554
1391
1147
1105
850
753
810
537
413
312
378
146
319
239
317
553
364
273
437
371
307
293
361
262
176
460
388
423
421
8
340
312
448
367
436
351
650
397
464
469
349
597
347
633
577
366
437
340
17
442
350
317
457
514
589
363
667
282
305
360
500
429
440
397
576
432
464
364
606
550
665
519
169
408
296
315
346
294
336
562
535
503
442
231
612
303
818
523
469
472
440
548
536
515
434
607
511
381
412
327
647
233
382
223
527
353
521
420
515
372
336
436
707
335
423
523
593
179
366
386
290
529
80
500
431
283
265
250
370
290
313
371
385
409
350
284
567
317
203
435
374
472
358
429
431
398
236
280
357
414
325
217
308
192
314
238
409
269
537
277
313
379
322
492
231
478
313
432
305
457
429
331
335
337
347
393
518
276
462
324
478
585
325
356
292
495
474
421
470
412
556
553
279
332
486
253
390
406
189
266
340
172
224
347
404
16
739
439
366
415
294
221
272
647
503
386
473
261
524
410
349
377
456
528
434
484
550
407
271
333
354
524
669
608
500
334
632
443
164
298
502
483
318
399
401
131
357
507
385
339
453
371
390
297
564
343
633
461
331
425
531
466
441
429
549
292
302
299
72
530
364
345
295
224
172
342
295
597
359
509
365
347
205
371
393
381
244
147
585
374
281
386
372
392
292
480
331
492
312
243
405
752
535
500
337
265
362
150
424
516
377
350
345
481
342
320
552
519
240
553
473
367
270
406
225
477
589
520
450
530
463
469
352
463
132
475
244
250
572
376
76
229
373
530
399
286
319
607
393
565
425
377
565
448
594
455
307
555
400
422
549
172
376
611
452
428
496
604
194
551
470
532
580
380
427
275
575
531
301
677
241
261
473
501
541
286
369
285
182
346
241
440
384
304
240
336
396
474
446
502
451
410
440
551
340
386
477
379
282
520
612
511
296
224
672
482
448
559
515
292
699
445
236
495
397
332
494
553
280
546
332
557
495
285
594
455
462
248
215
400
290
262
413
111
583
428
418
418
309
151
310
561
361
427
348
411
396
500
430
248
349
244
483
455
415
326
583
435
413
394
330
370
339
520
620
301
341
492
552
419
379
375
314
378
671
267
628
252
654
472
319
536
463
408
481
458
621
199
311
462
708
511
315
738
316
298
231
472
516
202
434
556
291
365
376
304
479
469
358
460
201
295
139
381
513
311
394
361
236
395
378
224
235
333
348
222
677
484
480
350
489
334
364
375
357
488
519
364
253
402
0
365
130
187
702
352
426
354
332
436
533
394
432
143
410
571
406
253
765
392
407
288
422
332
429
476
59
420
335
226
217
275
525
338
285
460
334
472
383
380
352
404
268
125
597
363
339
272
662
656
379
493
398
349
627
414
252
244
195
632
404
470
494
446
655
298
487
237
469
148
505
208
571
481
520
463
401
246
507
393
394
403
396
447
531
396
258
439
535
355
540
262
533
436
516
181
551
472
621
421
398
388
479
326
190
389
483
447
320
418
535
403
437
321
581
340
563
483
590
205
493
552
498
437
238
375
387
333
614
248
442
338
525
429
497
710
613
422
502
197
443
453
343
108
435
645
550
308
358
336
332
594
277
583
743
328
399
428
276
215
433
450
566
379
228
578
370
568
281
234
468
248
464
374
358
468
248
252
390
317
383
295
295
529
158
271
372
503
329
360
142
562
288
333
410
502
300
201
311
433
674
276
252
246
572
369
414
323
359
507
465
301
457
393
279
527
397
225
399
579
597
529
424
429
502
342
390
502
234
572
213
322
472
382
477
300
363
502
182
245
545
492
240
290
511
394
615
593
271
224
454
430
358
392
479
389
415
651
352
307
328
408
356
285
539
270
423
414
350
463
497
392
253
218
467
555
99
566
552
349
402
219
401
339
508
333
418
478
698
770
594
1073
1383
1208
1594
1769
1910
2184
2421
2875
2957
3232
3405
3673
4054
4089
4191
4581
5098
5183
5323
5471
5837
6034
6370
6333
6473
6712
6709
6681
7033
6962
6830
6905
6834
6915
6447
6514
6712
6309
6378
5881
5932
5715
5420
5319
4825
4729
4311
3911
4031
3695
3545
3033
3180
2600
2519
2179
1858
1547
1227
1362
1128
1117
715
883
532
765
310
399
353
432
496
541
461
325
372
407
444
473
359
265
353
428
222
384
186
522
313
337
426
394
362
520
459
454
310
583
758
727
1026
817
1313
1193
1639
1672
1947
2144
2324
2365
2950
3200
3534
3480
3938
4572
4414
4740
4844
5165
5434
5782
5926
6103
6105
6398
6548
6629
6884
6977
6662
6932
6692
6721
6846
6773
6912
6699
6750
6192
6359
5988
5743
5627
5421
5195
4948
4666
4448
4173
3788
3839
3265
3333
2740
2751
2111
2257
2037
1889
1554
1391
1147
1105
850
753
810
537
413
312
378
146
319
239
317
553
364
273
437
371
307
293
361
262
176
460
388
423
421
8
340
312
448
367
436
351
650
397
464
469
349
597
347
633
577
366
437
340
17
442
350
317
457
514
589
363
667
282
305
360
500
429
440
397
576
432
464
364
606
550
665
519
169
408
296
315
346
294
336
562
535
503
442
231
612
303
818
523
469
472
440
548
536
515
434
607
511
381
412
327
647
233
382
223
527
353
521
420
515
372
336
436
707
335
423
523
593
179
366
386
290
529
80
500
431
283
265
250
370
290
313
371
385
409
350
284
567
317
203
435
374
472
358
429
431
398
236
280
357
414
325
217
308
192
314
238
409
269
537
277
313
379
322
492
231
478
313
432
305
457
429
331
335
337
347
393
518
276
462
324
478
585
325
356
292
495
474
421
470
412
556
553
279
332
486
253
390
406
189
266
340
172
224
347
404
16
739
439
366
415
294
221
272
647
503
386
473
261
524
410
349
377
456
528
434
484
550
407
271
333
354
524
669
608
500
334
632
443
164
298
502
483
318
399
401
131
357
507
385
339
453
371
390
297
564
343
633
461
331
425
531
466
441
429
549
292
302
299
72
530
364
345
295
224
172
342
295
597
359
509
365
347
205
371
393
381
244
147
585
374
281
386
372
392
292
480
331
492
312
243
405
752
535
500
337
265
362
150
424
516
377
350
345
481
342
320
552
519
240
553
473
367
270
406
225
477
589
520
450
530
463
469
352
463
132
475
244
250
572
376
76
229
373
530
399
286
319
607
393
565
425
377
565
448
594
455
307
555
400
422
549
172
376
611
452
428
496
604
194
551
470
532
580
380
427
275
575
531
301
677
241
261
473
501
541
286
369
285
182
346
241
440
384
304
240
336
396
474
446
502
451
410
440
551
340
386
477
379
282
520
612
511
296
224
672
482
448
559
515
292
699
445
236
495
397
332
494
553
280
546
332
557
495
285
594
455
462
248
215
400
290
262
413
111
583
428
418
418
309
151
310
561
361
427
348
411
396
500
430
248
349
244
483
455
415
326
583
435
413
394
330
370
339
520
620
301
341
492
552
419
379
375
314
378
671
267
628
252
654
472
319
536
463
408
481
458
621
199
311
462
708
511
315
738
316
298
231
472
516
202
434
556
291
365
376
304
479
469
358
460
201
295
139
381
513
311
394
361
236
395
378
224
235
333
348
222
677
484
480
350
489
334
364
375
357
488
519
364
253
402
0
365
130
187
702
352
426
354
332
436
533
394
432
143
410
571
406
253
765
392
407
288
422
332
429
476
59
420
335
226
217
275
525
338
285
460
334
472
383
380
352
404
268
125
597
363
339
272
662
656
379
493
398
349
627
414
252
244
195
632
404
470
494
446
655
298
487
237
469
148
505
208
571
481
520
463
401
246
507
393
394
403
396
447
531
396
258
439
535
355
540
262
533
436
516
181
551
472
621
421
398
388
479
326
190
389
483
447
320
418
535
403
437
321
581
340
563
483
590
205
493
552
498
437
238
375
387
333
614
248
442
338
525
429
497
710
613
422
502
197
443
453
343
108
435
645
550
308
358
336
332
594
277
583
743
328
399
428
276
215
433
450
566
379
228
578
370
568
281
234
468
248
464
374
358
468
248
252
390
317
383
295
295
529
158
271
372
503
329
360
142
562
288
333
410
502
300
201
311
433
674
276
252
246
572
369
414
323
359
507
465
301
457
393
279
527
397
225
399
579
597
529
424
429
502
342
390
502
234
572
213
322
472
382
477
300
363
502
182
245
545
492
240
290
511
394
615
593
271
224
454
430
358
392
479
389
415
651
352
307
328
408
356
285
539
270
423
414
350
463
497
392
253
218
467
555
99
566
552
349
402
218
397
325
474
267
306
304
445
422
131
479
640
299
503
479
409
459
459
668
497
512
428
490
761
810
1069
1762
2725
3386
4215
5140
6347
7419
8637
9458
10405
11375
12004
12488
13218
13378
13324
13320
13018
12722
11742
11178
10644
9434
8645
7266
6443
5384
4312
3523
2452
1910
1189
633
737
512
569
313
720
393
558
453
357
258
135
452
385
522
252
534
279
591
197
333
319
417
492
541
461
325
372
407
444
473
359
265
353
428
222
384
186
522
313
337
426
394
358
506
424
387
198
409
505
378
563
223
569
284
548
382
446
418
363
158
489
480
558
297
645
1293
1292
1921
2470
3368
4325
5451
6436
7489
8372
9523
10481
11292
12179
12784
12847
13348
13186
13137
13031
12580
12207
11362
10683
9317
8625
7374
6253
5296
4313
3398
2575
1847
1325
894
495
657
288
613
279
544
149
532
536
599
462
482
404
510
387
404
557
363
300
246
343
132
315
238
317
553
364
273
437
371
307
293
361
262
176
460
388
423
421
8
340
312
448
367
436
351
650
397
464
469
349
597
347
633
577
366
437
340
17
442
350
317
457
514
589
363
667
282
305
360
500
429
440
397
576
432
464
364
606
550
665
519
169
408
296
315
346
294
336
562
535
503
442
231
612
303
818
523
469
472
440
548
536
515
434
607
511
381
412
327
647
233
382
223
527
353
521
420
515
372
336
436
707
335
423
523
593
179
366
386
290
529
80
500
431
283
265
250
370
290
313
371
385
409
350
284
567
317
203
435
374
472
358
429
431
398
236
280
357
414
325
217
308
192
314
238
409
269
537
277
313
379
322
492
231
478
313
432
305
457
429
331
335
337
347
393
518
276
462
324
478
585
325
356
292
495
474
421
470
412
556
553
279
332
486
253
390
406
189
266
340
172
224
347
404
16
739
439
366
415
294
221
272
647
503
386
473
261
524
410
349
377
456
528
434
484
550
407
271
333
354
524
669
608
500
334
632
443
164
298
502
483
318
399
401
131
357
507
385
339
453
371
390
297
564
343
633
461
331
425
531
466
441
429
549
292
302
299
72
530
364
345
295
224
172
342
295
597
359
509
365
347
205
371
393
381
244
147
585
374
281
386
372
392
292
480
331
492
312
243
405
752
535
500
337
265
362
150
424
516
377
350
345
481
342
320
552
519
240
553
473
367
270
406
225
477
589
520
450
530
463
469
352
463
132
475
244
250
572
376
76
229
373
530
399
286
319
607
393
565
425
377
565
448
594
455
307
555
400
422
549
172
376
611
452
428
496
604
194
551
470
532
580
380
427
275
575
531
301
677
241
261
473
501
541
286
369
285
182
346
241
440
384
304
240
336
396
474
446
502
451
410
440
551
340
386
477
379
282
520
612
511
296
224
672
482
448
559
515
292
699
445
236
495
397
332
494
553
280
546
332
557
495
285
594
455
462
248
215
400
290
262
413
111
583
428
418
418
309
151
310
561
361
427
348
411
396
500
430
248
349
244
483
455
415
326
583
435
413
394
330
370
339
520
620
301
341
492
552
419
379
375
314
378
671
267
628
252
654
472
319
536
463
408
481
458
621
199
311
462
708
511
315
738
316
298
231
472
516
202
434
556
291
365
376
304
479
469
358
460
201
295
139
381
513
311
394
361
236
395
378
224
235
333
348
222
677
484
480
350
489
334
364
375
357
488
519
364
253
402
0
365
130
187
702
352
426
354
332
436
533
394
432
143
410
571
406
253
765
392
407
288
422
332
429
476
59
420
335
226
217
275
525
338
285
460
334
472
383
380
352
404
268
125
597
363
339
272
662
656
379
493
398
349
627
414
252
244
195
632
404
470
494
446
655
298
487
237
469
148
505
208
571
481
520
463
401
246
507
393
394
403
396
447
531
396
258
439
535
355
540
262
533
436
516
181
551
472
621
421
398
388
479
326
190
389
483
447
320
418
535
403
437
321
581
340
563
483
590
205
493
552
498
437
238
375
387
333
614
248
442
338
525
429
497
710
613
422
502
197
443
453
343
108
435
645
550
308
358
336
332
594
277
583
743
328
399
428
276
215
433
450
566
379
228
578
370
568
281
234
468
248
464
374
358
468
248
252
390
317
383
295
295
529
158
271
372
503
329
360
142
562
288
333
410
502
300
201
311
433
674
276
252
246
572
369
414
323
359
507
465
301
457
393
279
527
397
225
399
579
597
529
424
429
502
342
390
502
234
572
213
322
472
382
477
300
363
502
182
245
545
492
240
290
511
394
615
593
271
224
454
430
358
392
479
389
415
651
352
307
328
408
356
285
539
270
423
414
350
463
497
392
253
218
467
555
99
566
552
349
402
218
397
325
474
267
306
304
445
422
131
479
640
299
503
479
409
459
459
668
497
512
420
422
536
305
145
285
612
612
801
1148
1869
2571
3552
4277
5276
6443
7408
8359
9671
10512
11218
12033
12585
13155
13029
13283
13511
12981
12774
11861
11374
10513
9492
8608
7300
6388
5181
4047
3512
2625
2046
1237
1225
618
626
461
357
258
135
452
385
522
252
534
279
591
197
333
319
417
492
541
461
325
372
407
444
473
359
265
353
428
222
384
186
522
313
337
426
394
358
506
424
387
198
409
505
378
563
223
569
284
548
382
446
426
431
383
994
1404
2035
2410
3419
4707
5284
6399
7318
8453
9506
10580
11368
12084
12501
13070
13347
13398
13466
13217
12414
12061
11080
10271
9484
8451
7612
6430
5554
4136
3540
2526
1775
1304
899
624
462
370
401
389
269
588
280
613
279
544
149
532
536
599
462
482
404
510
387
404
557
363
300
246
343
132
315
238
317
553
364
273
437
371
307
293
361
262
176
460
388
423
421
8
340
312
448
367
436
351
650
397
464
469
349
597
347
633
577
366
437
340
17
442
350
317
457
514
589
363
667
282
305
360
500
429
440
397
576
432
464
364
606
550
665
519
169
408
296
315
346
294
336
562
535
503
442
231
612
303
818
523
469
472
440
548
536
515
434
607
511
381
412
327
647
233
382
223
527
353
521
420
515
372
336
436
707
335
423
523
593
179
366
386
290
529
80
500
431
283
265
250
370
290
313
371
385
409
350
284
567
317
203
435
374
472
358
429
431
398
236
280
357
414
325
217
308
192
314
238
409
269
537
277
313
379
322
492
231
478
313
432
305
457
429
331
335
337
347
393
518
276
462
324
478
585
325
356
292
495
474
421
470
412
556
553
279
332
486
253
390
406
189
266
340
172
224
347
404
16
739
439
366
415
294
221
272
647
503
386
473
261
524
410
349
377
456
528
434
484
550
407
271
333
354
524
669
608
500
334
632
443
164
298
502
483
318
399
401
131
357
507
385
339
453
371
390
297
564
343
633
461
331
425
531
466
441
429
549
292
302
299
72
530
364
345
295
224
172
342
295
597
359
509
365
347
205
371
393
381
244
147
585
374
281
386
372
392
292
480
331
492
312
243
405
752
535
500
337
265
362
150
424
516
377
350
345
481
342
320
552
519
240
553
473
367
270
406
225
477
589
520
450
530
463
469
352
463
132
475
244
250
572
376
76
229
373
530
399
286
319
607
393
565
425
377
565
448
594
455
307
555
400
422
549
172
376
611
452
428
496
604
194
551
470
532
580
380
427
275
575
531
301
677
241
261
473
501
541
286
369
285
182
346
241
440
384
304
240
336
396
474
446
502
451
410
440
551
340
386
477
379
282
520
612
511
296
224
672
482
448
559
515
292
699
445
236
495
397
332
494
553
280
546
332
557
495
285
594
455
462
248
215
400
290
262
413
111
583
428
418
418
309
151
310
561
361
427
348
411
396
500
430
248
349
244
483
455
415
326
583
435
413
394
330
370
339
520
620
301
341
492
552
419
379
375
314
378
671
267
628
252
654
472
319
536
463
408
481
458
621
199
311
462
708
511
315
738
316
298
231
472
516
202
434
556
291
365
376
304
479
469
358
460
201
295
139
381
513
311
394
361
236
395
378
224
235
333
348
222
677
484
480
350
489
334
364
375
357
488
519
364
253
402
0
365
130
187
702
352
426
354
332
436
533
394
432
143
410
571
406
253
765
392
407
288
422
332
429
476
59
420
335
226
217
275
525
338
285
460
334
472
383
380
352
404
268
125
597
363
339
272
662
656
379
493
398
349
627
414
252
244
195
632
404
470
494
446
655
298
487
237
469
148
505
208
571
481
520
463
401
246
507
393
394
403
396
447
531
396
258
439
535
355
540
262
533
436
516
181
551
472
621
421
398
388
479
326
190
389
483
447
320
418
535
403
437
321
581
340
563
483
590
205
493
552
498
437
238
375
387
333
614
248
442
338
525
429
497
710
613
422
502
197
443
453
343
108
435
645
550
308
358
336
332
594
277
583
743
328
399
428
276
215
433
450
566
379
228
578
370
568
281
234
468
248
464
374
358
468
248
252
390
317
383
295
295
529
158
271
372
503
329
360
142
562
288
333
410
502
300
201
311
433
674
276
252
246
572
369
414
323
359
507
465
301
457
393
279
527
397
225
399
579
597
529
424
429
502
342
390
502
234
572
213
322
472
382
477
300
363
502
182
245
545
492
240
290
511
394
615
593
271
224
454
430
358
392
479
389
415
651
352
307
328
408
356
285
539
270
423
414
350
463
497
392
253
218
467
555
99
566
552
349
402
218
397
325
474
267
306
304
445
422
131
479
640
299
503
479
409
459
459
668
497
512
420
422
536
305
145
277
544
387
295
224
392
458
777
863
1284
1965
2561
3273
4490
5383
6286
7438
8456
9608
10163
11178
12223
12548
13207
13148
13480
13379
13039
12737
11895
11320
10310
9227
8597
7473
6524
5229
4639
3392
2739
1938
1281
763
360
521
393
522
252
534
279
591
197
333
319
417
492
541
461
325
372
407
444
473
359
265
353
428
222
384
186
522
313
337
426
394
358
506
424
387
198
409
505
378
563
223
577
352
773
888
1370
1903
2544
3157
4408
5396
6513
7258
8505
9887
10413
11331
11913
12582
13053
13446
13473
13371
12934
12637
12060
11292
10600
9670
8285
7465
6149
5142
4303
3365
2764
1952
1562
723
766
413
298
380
393
399
393
362
401
389
269
588
280
613
279
544
149
532
536
599
462
482
404
510
387
404
557
363
300
246
343
132
315
238
317
553
364
273
437
371
307
293
361
262
176
460
388
423
421
8
340
312
448
367
436
351
650
397
464
469
349
597
347
633
577
366
437
340
17
442
350
317
457
514
589
363
667
282
305
360
500
429
440
397
576
432
464
364
606
550
665
519
169
408
296
315
346
294
336
562
535
503
442
231
612
303
818
523
469
472
440
548
536
515
434
607
511
381
412
327
647
233
382
223
527
353
521
420
515
372
336
436
707
335
423
523
593
179
366
386
290
529
80
500
431
283
265
250
370
290
313
371
385
409
350
284
567
317
203
435
374
472
358
429
431
398
236
280
357
414
325
217
308
192
314
238
409
269
537
277
313
379
322
492
231
478
313
432
305
457
429
331
335
337
347
393
518
276
462
324
478
585
325
356
292
495
474
421
470
412
556
553
279
332
486
253
390
406
189
266
340
172
224
347
404
16
739
439
366
415
294
221
272
647
503
386
473
261
524
410
349
377
456
528
434
484
550
407
271
333
354
524
669
608
500
334
632
443
164
298
502
483
318
399
401
131
357
507
385
339
453
371
390
297
564
343
633
461
331
425
531
466
441
429
549
292
302
299
72
530
364
345
295
224
172
342
295
597
359
509
365
347
205
371
393
381
244
147
585
374
281
386
372
392
292
480
331
492
312
243
405
752
535
500
337
265
362
150
424
516
377
350
345
481
342
320
552
519
240
553
473
367
270
406
225
477
589
520
450
530
463
469
352
463
132
475
244
250
572
376
76
229
373
530
399
286
319
607
393
565
425
377
565
448
594
455
307
555
400
422
549
172
376
611
452
428
496
604
194
551
470
532
580
380
427
275
575
531
301
677
241
261
473
501
541
286
369
285
182
346
241
440
384
304
240
336
396
474
446
502
451
410
440
551
340
386
477
379
282
520
612
511
296
224
672
482
448
559
515
292
699
445
236
495
397
332
494
553
280
546
332
557
495
285
594
455
462
248
215
400
290
262
413
111
583
428
418
418
309
151
310
561
361
427
348
411
396
500
430
248
349
244
483
455
415
326
583
435
413
394
330
370
339
520
620
301
341
492
552
419
379
375
314
378
671
267
628
252
654
472
319
536
463
408
481
458
621
199
311
462
708
511
315
738
316
298
231
472
516
202
434
556
291
365
376
304
479
469
358
460
201
295
139
381
513
311
394
361
236
395
378
224
235
333
348
222
677
484
480
350
489
334
364
375
357
488
519
364
253
402
0
365
130
187
702
352
426
354
332
436
533
394
432
143
410
571
406
253
765
392
407
288
422
332
429
476
59
420
335
226
217
275
525
338
285
460
334
472
383
380
352
404
268
125
597
363
339
272
662
656
379
493
398
349
627
414
252
244
195
632
404
470
494
446
655
298
487
237
469
148
505
208
571
481
520
463
401
246
507
393
394
403
396
447
531
396
258
439
535
355
540
262
533
436
516
181
551
472
621
421
398
388
479
326
190
389
483
447
320
418
535
403
437
321
581
340
563
483
590
205
493
552
498
437
238
375
387
333
614
248
442
338
525
429
497
710
613
422
502
197
443
453
343
108
435
645
550
308
358
336
332
594
277
583
743
328
399
428
276
215
433
450
566
379
228
578
370
568
281
234
468
248
464
374
358
468
248
252
390
317
383
295
295
529
158
271
372
503
329
360
142
562
288
333
410
502
300
201
311
433
674
276
252
246
572
369
414
323
359
507
465
301
457
393
279
527
397
225
399
579
597
529
424
429
502
342
390
502
234
572
213
322
472
382
477
300
363
502
182
245
545
492
240
290
511
394
615
593
271
224
454
430
358
392
479
389
415
651
352
307
328
408
356
285
539
270
423
414
350
463
497
392
253
218
467
555
99
566
552
349
402
218
397
325
474
267
306
304
445
422
131
479
640
299
503
479
409
459
459
668
497
512
420
422
536
305
145
277
544
387
295
224
384
390
552
358
360
488
448
499
1076
1391
1808
2590
3371
4427
5034
6246
7628
8419
9660
10282
11374
12092
12606
13170
13182
13426
13176
12774
12726
12068
11455
10358
9819
8478
7587
6416
5273
4177
3134
2634
1870
1447
758
759
347
599
197
333
319
417
492
541
461
325
372
407
444
473
359
265
353
428
222
384
186
522
313
337
426
394
358
506
424
387
198
417
573
603
1068
1147
2054
2465
3547
4301
5362
6381
7392
8243
9589
10525
11444
11853
12634
13434
13279
13437
13201
13015
12620
12159
11368
10505
9387
8509
7465
6360
5471
4490
3199
2618
1671
1150
889
591
651
475
637
217
541
345
290
380
393
399
393
362
401
389
269
588
280
613
279
544
149
532
536
599
462
482
404
510
387
404
557
363
300
246
343
132
315
238
317
553
364
273
437
371
307
293
361
262
176
460
388
423
421
8
340
312
448
367
436
351
650
397
464
469
349
597
347
633
577
366
437
340
17
442
350
317
457
514
589
363
667
282
305
360
500
429
440
397
576
432
464
364
606
550
665
519
169
408
296
315
346
294
336
562
535
503
442
231
612
303
818
523
469
472
440
548
536
515
434
607
511
381
412
327
647
233
382
223
527
353
521
420
515
372
336
436
707
335
423
523
593
179
366
386
290
529
80
500
431
283
265
250
370
290
313
371
385
409
350
284
567
317
203
435
374
472
358
429
431
398
236
280
357
414
325
217
308
192
314
238
409
269
537
277
313
379
322
492
231
478
313
432
305
457
429
331
335
337
347
393
518
276
462
324
478
585
325
356
292
495
474
421
470
412
556
553
279
332
486
253
390
406
189
266
340
172
224
347
404
16
739
439
366
415
294
221
272
647
503
386
473
261
524
410
349
377
456
528
434
484
550
407
271
333
354
524
669
608
500
334
632
443
164
298
502
483
318
399
401
131
357
507
385
339
453
371
390
297
564
343
633
461
331
425
531
466
441
429
549
292
302
299
72
530
364
345
295
224
172
342
295
597
359
509
365
347
205
371
393
381
244
147
585
374
281
386
372
392
292
480
331
492
312
243
405
752
535
500
337
265
362
150
424
516
377
350
345
481
342
320
552
519
240
553
473
367
270
406
225
477
589
520
450
530
463
469
352
463
132
475
244
250
572
376
76
229
373
530
399
286
319
607
393
565
425
377
565
448
594
455
307
555
400
422
549
172
376
611
452
428
496
604
194
551
470
532
580
380
427
275
575
531
301
677
241
261
473
501
541
286
369
285
182
346
241
440
384
304
240
336
396
474
446
502
451
410
440
551
340
386
477
379
282
520
612
511
296
224
672
482
448
559
515
292
699
445
236
495
397
332
494
553
280
546
332
557
495
285
594
455
462
248
215
400
290
262
413
111
583
428
418
418
309
151
310
561
361
427
348
411
396
500
430
248
349
244
483
455
415
326
583
435
413
394
330
370
339
520
620
301
341
492
552
419
379
375
314
378
671
267
628
252
654
472
319
536
463
408
481
458
621
199
311
462
708
511
315
738
316
298
231
472
516
202
434
556
291
365
376
304
479
469
358
460
201
295
139
381
513
311
394
361
236
395
378
224
235
333
348
222
677
484
480
350
489
334
364
375
357
488
519
364
253
402
0
365
130
187
702
352
426
354
332
436
533
394
432
143
410
571
406
253
765
392
407
288
422
332
429
476
59
420
335
226
217
275
525
338
285
460
334
472
383
380
352
404
268
125
597
363
339
272
662
656
379
493
398
349
627
414
252
244
195
632
404
470
494
446
655
298
487
237
469
148
505
208
571
481
520
463
401
246
507
393
394
403
396
447
531
396
258
439
535
355
540
262
533
436
516
181
551
472
621
421
398
388
479
326
190
389
483
447
320
418
535
403
437
321
581
340
563
483
590
205
493
552
498
437
238
375
387
333
614
248
442
338
525
429
497
710
613
422
502
197
443
453
343
108
435
645
550
308
358
336
332
594
277
583
743
328
399
428
276
215
433
450
566
379
228
578
370
568
281
234
468
248
464
374
358
468
248
252
390
317
383
295
295
529
158
271
372
503
329
360
142
562
288
333
410
502
300
201
311
433
674
276
252
246
572
369
414
323
359
507
465
301
457
393
279
527
397
225
399
579
597
529
424
429
502
342
390
502
234
572
213
322
472
382
477
300
363
502
182
245
545
492
240
290
511
394
615
593
271
224
454
430
358
392
479
389
415
651
352
307
328
408
356
285
539
270
423
414
350
463
497
392
253
218
467
555
99
566
552
349
402
218
397
325
474
267
306
304
445
422
131
479
640
299
503
479
409
459
459
668
497
512
420
422
536
305
145
277
544
387
295
224
384
390
552
358
360
480
379
274
571
467
331
478
597
1014
1042
1768
2780
3334
4480
5153
6443
7497
8477
9623
10316
11320
11889
12341
13159
13355
13561
13224
13366
12607
12182
11348
10402
9358
8220
7481
6348
5439
4172
3534
2460
2076
1122
838
544
486
500
541
461
325
372
407
444
473
359
265
353
428
222
384
186
522
313
337
426
394
366
574
649
893
1122
1894
2686
3377
4482
5139
6532
7313
8632
9482
10491
11313
11987
12372
13136
13391
13550
13140
13067
13001
11992
11331
10334
9468
8491
7564
6436
5376
4206
3423
2617
1882
1479
1076
425
505
194
226
384
366
582
467
637
217
541
345
290
380
393
399
393
362
401
389
269
588
280
613
279
544
149
532
536
599
462
482
404
510
387
404
557
363
300
246
343
132
315
238
317
553
364
273
437
371
307
293
361
262
176
460
388
423
421
8
340
312
448
367
436
351
650
397
464
469
349
597
347
633
577
366
437
340
17
442
350
317
457
514
589
363
667
282
305
360
500
429
440
397
576
432
464
364
606
550
665
519
169
408
296
315
346
294
336
562
535
503
442
231
612
303
818
523
469
472
440
548
536
515
434
607
511
381
412
327
647
233
382
223
527
353
521
420
515
372
336
436
707
335
423
523
593
179
366
386
290
529
80
500
431
283
265
250
370
290
313
371
385
409
350
284
567
317
203
435
374
472
358
429
431
398
236
280
357
414
325
217
308
192
314
238
409
269
537
277
313
379
322
492
231
478
313
432
305
457
429
331
335
337
347
393
518
276
462
324
478
585
325
356
292
495
474
421
470
412
556
553
279
332
486
253
390
406
189
266
340
172
224
347
404
16
739
439
366
415
294
221
272
647
503
386
473
261
524
410
349
377
456
528
434
484
550
407
271
333
354
524
669
608
500
334
632
443
164
298
502
483
318
399
401
131
357
507
385
339
453
371
390
297
564
343
633
461
331
425
531
466
441
429
549
292
302
299
72
530
364
345
295
224
172
342
295
597
359
509
365
347
205
371
393
381
244
147
585
374
281
386
372
392
292
480
331
492
312
243
405
752
535
500
337
265
362
150
424
516
377
350
345
481
342
320
552
519
240
553
473
367
270
406
225
477
589
520
450
530
463
469
352
463
132
475
244
250
572
376
76
229
373
530
399
286
319
607
393
565
425
377
565
448
594
455
307
555
400
422
549
172
376
611
452
428
496
604
194
551
470
532
580
380
427
275
575
531
301
677
241
261
473
501
541
286
369
285
182
346
241
440
384
304
240
336
396
474
446
502
451
410
440
551
340
386
477
379
282
520
612
511
296
224
672
482
448
559
515
292
699
445
236
495
397
332
494
553
280
546
332
557
495
285
594
455
462
248
215
400
290
262
413
111
583
428
418
418
309
151
310
561
361
427
348
411
396
500
430
248
349
244
483
455
415
326
583
435
413
394
330
370
339
520
620
301
341
492
552
419
379
375
314
378
671
267
628
252
654
472
319
536
463
408
481
458
621
199
311
462
708
511
315
738
316
298
231
472
516
202
434
556
291
365
376
304
479
469
358
460
201
295
139
381
513
311
394
361
236
395
378
224
235
333
348
222
677
484
480
350
489
334
364
375
357
488
519
364
253
402
0
365
130
187
702
352
426
354
332
436
533
394
432
143
410
571
406
253
765
392
407
288
422
332
429
476
59
420
335
226
217
275
525
338
285
460
334
472
383
380
352
404
268
125
597
363
339
272
662
656
379
493
398
349
627
414
252
244
195
632
404
470
494
446
655
298
487
237
469
148
505
208
571
481
520
463
401
246
507
393
394
403
396
447
531
396
258
439
535
355
540
262
533
436
516
181
551
472
621
421
398
388
479
326
190
389
483
447
320
418
535
403
437
321
581
340
563
483
590
205
493
552
498
437
238
375
387
333
614
248
442
338
525
429
497
710
613
422
502
197
443
453
343
108
435
645
550
308
358
336
332
594
277
583
743
328
399
428
276
215
433
450
566
379
228
578
370
568
281
234
468
248
464
374
358
468
248
252
390
317
383
295
295
529
158
271
372
503
329
360
142
562
288
333
410
502
300
201
311
433
674
276
252
246
572
369
414
323
359
507
465
301
457
393
279
527
397
225
399
579
597
529
424
429
502
342
390
502
234
572
213
322
472
382
477
300
363
502
182
245
545
492
240
290
511
394
615
593
271
224
454
430
358
392
479
389
415
651
352
307
328
408
356
285
539
270
423
414
350
463
497
392
253
218
467
555
99
566
552
349
402
218
397
325
474
267
306
304
445
422
131
479
640
299
503
479
409
459
459
668
497
512
420
422
536
305
145
277
544
387
295
224
384
390
552
358
360
480
379
274
571
467
323
409
371
508
117
283
599
335
589
370
828
1165
1579
2340
2847
3874
4675
5563
7008
8004
9160
9896
11203
11669
12495
12904
13158
13236
13113
13253
12836
12460
11528
11018
9862
9190
7758
6828
5754
4827
3941
3117
2278
1512
1070
755
577
502
360
265
353
428
223
413
318
871
1010
1524
2243
2970
3806
4916
5860
6883
7758
9008
10088
10862
11839
12161
13020
13085
13526
13360
13247
12869
12300
11434
10973
10063
9149
7789
6915
6223
4777
3884
2865
2185
1593
1232
822
592
315
424
435
397
554
570
200
436
186
226
384
366
582
467
637
217
541
345
290
380
393
399
393
362
401
389
269
588
280
613
279
544
149
532
536
599
462
482
404
510
387
404
557
363
300
246
343
132
315
238
317
553
364
273
437
371
307
293
361
262
176
460
388
423
421
8
340
312
448
367
436
351
650
397
464
469
349
597
347
633
577
366
437
340
17
442
350
317
457
514
589
363
667
282
305
360
500
429
440
397
576
432
464
364
606
550
665
519
169
408
296
315
346
294
336
562
535
503
442
231
612
303
818
523
469
472
440
548
536
515
434
607
511
381
412
327
647
233
382
223
527
353
521
420
515
372
336
436
707
335
423
523
593
179
366
386
290
529
80
500
431
283
265
250
370
290
313
371
385
409
350
284
567
317
203
435
374
472
358
429
431
398
236
280
357
414
325
217
308
192
314
238
409
269
537
277
313
379
322
492
231
478
313
432
305
457
429
331
335
337
347
393
518
276
462
324
478
585
325
356
292
495
474
421
470
412
556
553
279
332
486
253
390
406
189
266
340
172
224
347
404
16
739
439
366
415
294
221
272
647
503
386
473
261
524
410
349
377
456
528
434
484
550
407
271
333
354
524
669
608
500
334
632
443
164
298
502
483
318
399
401
131
357
507
385
339
453
371
390
297
564
343
633
461
331
425
531
466
441
429
549
292
302
299
72
530
364
345
295
224
172
342
295
597
359
509
365
347
205
371
393
381
244
147
585
374
281
386
372
392
292
480
331
492
312
243
405
752
535
500
337
265
362
150
424
516
377
350
345
481
342
320
552
519
240
553
473
367
270
406
225
477
589
520
450
530
463
469
352
463
132
475
244
250
572
376
76
229
373
530
399
286
319
607
393
565
425
377
565
448
594
455
307
555
400
422
549
172
376
611
452
428
496
604
194
551
470
532
580
380
427
275
575
531
301
677
241
261
473
501
541
286
369
285
182
346
241
440
384
304
240
336
396
474
446
502
451
410
440
551
340
386
477
379
282
520
612
511
296
224
672
482
448
559
515
292
699
445
